…
```
## # A tibble: 133 x 14
##    hhincome sex      age edyrs usdur1 usdoc1 .fitted .se.fit .resid   .hat
##       <dbl> <chr>  <dbl> <dbl>  <dbl> <chr>    <dbl>   <dbl>  <dbl>  <dbl>
##  1     1050 M     -15.4     12 -14.0  Legal…    829.    99.1  221.  0.0389
##  2      475 F      10.6      9   4.01 Undoc…    822.   125.  -347.  0.0620
##  3     1500 M      -1.42     3 220.   Legal…    973.   111.   527.  0.0485
##  4      900 M      -4.42     5 -40.0  Legal…   1014.    89.2 -114.  0.0315
##  5     2500 M       8.58    11 -36.0  Tempo…   1119.   105.  1381.  0.0434
##  6      500 F      -8.42     9  28.0  Undoc…    530.   116.   -29.9 0.0534
##  7     1750 M     -10.4      8  28.0  Legal…    964.    85.1  786.  0.0287
##  8     1250 M       6.58    16   4.01 Tempo…   1286.   120.   -35.8 0.0567
##  9      630 M      10.6      0 -38.0  Tempo…    574.   112.    56.5 0.0496
## 10      700 M     -10.4      9 -38.0  Legal…    965.    87.3 -265.  0.0302
## # … with 123 more rows, and 4 more variables: .sigma <dbl>, .cooksd <dbl>,
## #   .std.resid <dbl>, obs_num <int>
```
…
```
## # A tibble: 34 x 14
##    hhincome sex     age edyrs usdur1 usdoc1 .fitted .se.fit .resid    .hat
##       <dbl> <chr> <dbl> <dbl>  <dbl> <chr>    <dbl>   <dbl>  <dbl>   <dbl>
##  1     1900 M     -5.42     6 -26.0  Undoc…    809.    28.6  1091. 0.00323
##  2     2500 M      8.58    11 -36.0  Tempo…   1119.   105.   1381. 0.0434 
##  3     1777 M     -9.42     4   4.01 Undoc…    774.    41.6  1003. 0.00684
##  4     2100 M     -4.42     5  52.0  Undoc…    800.    35.4  1300. 0.00495
##  5     2025 M     -7.42    11   4.01 Undoc…    814.    39.6  1211. 0.00622
##  6     2250 M      3.58     1   4.01 Undoc…    712.    41.4  1538. 0.00677
##  7     2421 M      6.58     5 -41.0  Undoc…    871.    34.6  1550. 0.00474
##  8     2063 M     -1.42     9 -38.0  Undoc…    908.    34.4  1155. 0.00469
##  9     2500 M     -9.42    16 -38.0  Legal…    977.   105.   1523. 0.0440 
## 10     2000 M     25.6      4 514.   Undoc…    855.   179.   1145. 0.127  
## # … with 24 more rows, and 4 more variables: .sigma <dbl>, .cooksd <dbl>,
## #   .std.resid <dbl>, obs_num <int>
```
…
