…
    ## # A tibble: 131 x 14
    ##    hhincome sex      age statebrn edyrs usdurl .fitted .se.fit .resid
    ##       <dbl> <chr>  <dbl> <chr>    <dbl>  <dbl>   <dbl>   <dbl>  <dbl>
    ##  1     1050 M     -15.4  Bajío       12 -30.3     819.    90.2  231. 
    ##  2      475 F      10.6  Pacific…     9 -36.3     689.   119.  -214. 
    ##  3      425 M     -10.4  Bajío        1   5.73    707.    83.6 -282. 
    ##  4     1500 M      -1.42 Pacific…     3 204.      751.    90.9  749. 
    ##  5      567 M     -17.4  Bajío       11 -53.3     743.    84.4 -176. 
    ##  6      213 M      14.6  Bajío        1 162.      814.    86.3 -601. 
    ##  7      425 M     -15.4  Central…     9 -18.3     410.   318.    15.0
    ##  8     2500 M       8.58 Bajío       11 171.     1476.    81.0 1024. 
    ##  9      500 F      -8.42 Central…     9  29.7     803.   291.  -303. 
    ## 10      800 M      -1.42 Norther…     6 126.      443.   301.   357. 
    ## # … with 121 more rows, and 5 more variables: .hat <dbl>, .sigma <dbl>,
    ## #   .cooksd <dbl>, .std.resid <dbl>, obs_num <int>
…
    ## # A tibble: 29 x 14
    ##    hhincome sex     age statebrn edyrs usdurl .fitted .se.fit .resid
    ##       <dbl> <chr> <dbl> <chr>    <dbl>  <dbl>   <dbl>   <dbl>  <dbl>
    ##  1     1900 M     -5.42 Pacific…     6  29.7     769.    35.6  1131.
    ##  2     2500 M      8.58 Bajío       11 171.     1476.    81.0  1024.
    ##  3     1777 M     -9.42 Pacific…     4 -36.3     774.    46.2  1003.
    ##  4     2100 M     -4.42 Pacific…     5  57.7     772.    43.0  1328.
    ##  5     2025 M     -7.42 Pacific…    11   5.73    722.    45.0  1303.
    ##  6     2250 M      3.58 Pacific…     1 -54.3     772.    55.0  1478.
    ##  7     2500 M     -9.42 Bajío       16  17.7    1098.   120.   1402.
    ##  8     2400 M      9.58 Bajío        6 162.     1157.    60.9  1243.
    ##  9     1800 M     -9.42 Pacific…     6 -10.3     747.    35.7  1053.
    ## 10     2000 M      9.58 Pacific…     4 -22.3     833.    41.0  1167.
    ## # … with 19 more rows, and 5 more variables: .hat <dbl>, .sigma <dbl>,
    ## #   .cooksd <dbl>, .std.resid <dbl>, obs_num <int>
…
