…
    ##   edyrs = col_double(),
    ##   occ = col_double(),
    ##   hhincome = col_double(),
    ##   usstate1 = col_character(),
    ##   usstatel = col_character(),
    ##   usplace1 = col_double(),
    ##   usplacel = col_double(),
    ##   usdur1 = col_double(),
    ##   usdurl = col_double(),
    ##   usdoc1 = col_character(),
    ##   occtype = col_character(),
    ##   uscity = col_character()
    ## )

    ## # A tibble: 2,805 x 19
    ##       X1 sex   relhead yrborn   age statebrn marstat edyrs   occ hhincome
    ##    <dbl> <chr>   <dbl>  <dbl> <dbl> <chr>    <chr>   <dbl> <dbl>    <dbl>
    ##  1     1 M           1   1938    49 Guanaju… Married     3   522   250000
    ##  2     2 M           1   1928    59 Guanaju… Married     3   522   200000
    ##  3     3 M           1   1950    37 Guanaju… Never …     6   410  1440000
    ##  4     4 M           1   1946    41 Guanaju… Married     6   522   300000
    ##  5     5 M           1   1956    31 Guanaju… Married     6   142   300000
    ##  6     6 M           1   1921    66 Jalisco  Married     0   529   200000
    ##  7     7 M           1   1914    73 Guanaju… Married     0   830   240000
    ##  8     8 M           1   1932    55 Guanaju… Married     6   719    90000
    ##  9     9 M           1   1945    42 Guanaju… Consen…     6   559   200000
    ## 10    10 M           1   1945    42 Guanaju… Married     6   819   300000
    ## # … with 2,795 more rows, and 9 more variables: usstate1 <chr>,
    ## #   usstatel <chr>, usplace1 <dbl>, usplacel <dbl>, usdur1 <dbl>,
    ## #   usdurl <dbl>, usdoc1 <chr>, occtype <chr>, uscity <chr>
## 1\. Introduction

We are aiming to discover what characteristics of Mexican immmigrants to
the United States, specifically California, influence their projected
household income. We will be building a multiple linear regression model
to predict household income considering the following variables: `sex`,
`relhead`, `age`, `statebrn`, `marstat`, `edyrs`, `occtype`, `usdur1`,
`usdurl`, `usdoc1`, `uscity`, `yrborn`.

Our response variable is household income: the total income for a single
household, reported in $USD.

## 2\. Exploratory Data Analysis

    ## # A tibble: 1,778 x 19
    ##       X1 sex   relhead yrborn   age statebrn marstat edyrs   occ hhincome
    ##    <dbl> <chr>   <dbl>  <dbl> <dbl> <chr>    <chr>   <dbl> <dbl>    <dbl>
    ##  1     2 M           1   1928    59 Guanaju… Married     3   522   10288.
    ##  2     5 M           1   1956    31 Guanaju… Married     6   142   15432.
    ##  3     6 M           1   1921    66 Jalisco  Married     0   529   10288.
    ##  4     9 M           1   1945    42 Guanaju… Consen…     6   559   10288.
    ##  5    10 M           1   1945    42 Guanaju… Married     6   819   15432.
    ##  6    11 M           1   1936    51 Guanaju… Widowed     3   522   12346.
    ##  7    12 M           1   1951    36 Guanaju… Married     2   529    9259.
    ##  8    13 M           1   1946    41 Guanaju… Married     6   419   12346.
    ##  9    18 M           1   1952    35 Guanaju… Married     6   559   20576.
    ## 10    19 M           1   1947    40 Guanaju… Married     3   410    9259.
    ## # … with 1,768 more rows, and 9 more variables: usstate1 <chr>,
    ## #   usstatel <chr>, usplace1 <dbl>, usplacel <dbl>, usdur1 <dbl>,
    ## #   usdurl <dbl>, usdoc1 <chr>, occtype <chr>, uscity <chr>
…
