…
``` r
imm <- pers170 %>%
  select(sex, relhead, yrborn, age, statebrn, marstat, edyrs, occ, hhincome, ldowage, health, healthly, healthnw)
imm %>%
  filter(hhincome != 9999, hhincome != 8888)
```

    ## # A tibble: 7,351 x 13
    ##      sex relhead yrborn   age statebrn marstat edyrs   occ hhincome ldowage
    ##    <dbl>   <dbl>  <dbl> <dbl>    <dbl>   <dbl> <dbl> <dbl>    <dbl>   <dbl>
    ##  1     1       1   1928    59       11       2     0    50        0      NA
    ##  2     2       1   1932    55       11       4     0    20        0      NA
    ##  3     1       1   1938    49       11       2     3   522   250000      NA
    ##  4     2       1   1914    73       11       1     1   549   700000      NA
    ##  5     1       1   1928    59       11       2     3   522   200000      NA
    ##  6     1       1   1920    67       11       2     0   410   240000      NA
    ##  7     1       1   1944    43       11       2     3   410   240000      NA
    ##  8     1       1   1947    40       11       2     3   529   240000      NA
    ##  9     1       1   1951    36       11       2     3   529   350000      NA
    ## 10     1       1   1950    37       11       1     6   410  1440000      NA
    ## # … with 7,341 more rows, and 3 more variables: health <lgl>,
    ## #   healthly <lgl>, healthnw <lgl>

``` r
imm %>%
  filter(!is.na(health))
```

    ## # A tibble: 46 x 13
    ##      sex relhead yrborn   age statebrn marstat edyrs   occ hhincome ldowage
    ##    <dbl>   <dbl>  <dbl> <dbl>    <dbl>   <dbl> <dbl> <dbl>    <dbl>   <dbl>
    ##  1     2       1   1966    41       17       3    12   721       NA    1000
    ##  2     2       2   1956    51       17       2     6    20       NA       0
    ##  3     2       1   1952    55       17       4     6    20       NA     500
    ##  4     1       1   1970    37       17       2     9   410       NA    9999
    ##  5     1       1   1977    30       17       2    17   113       NA    3000
    ##  6     2       2   1975    32       17       2    12    20       NA    4000
    ##  7     1       1   1964    43       14       2     6   215       NA     200
    ##  8     2       2   1982    25       14       2     4    20       NA    1300
    ##  9     2       1   1953    54       14       6     6    20       NA    9999
    ## 10     2       2   1955    52       14       2    12   710       NA    9999
    ## # … with 36 more rows, and 3 more variables: health <lgl>, healthly <lgl>,
    ## #   healthnw <lgl>
…
